('D:\\a\\TournamentStreamHelperTLS\\TournamentStreamHelperTLS\\build\\main\\main.pkg',
 {'BINARY': True,
  'DATA': True,
  'EXECUTABLE': True,
  'EXTENSION': True,
  'PYMODULE': True,
  'PYSOURCE': True,
  'PYZ': False,
  'SPLASH': True},
 [('PYZ-00.pyz',
   'D:\\a\\TournamentStreamHelperTLS\\TournamentStreamHelperTLS\\build\\main\\PYZ-00.pyz',
   'PYZ'),
  ('struct',
   'D:\\a\\TournamentStreamHelperTLS\\TournamentStreamHelperTLS\\build\\main\\localpycs\\struct.pyc',
   'PYMODULE'),
  ('pyimod01_archive',
   'D:\\a\\TournamentStreamHelperTLS\\TournamentStreamHelperTLS\\build\\main\\localpycs\\pyimod01_archive.pyc',
   'PYMODULE'),
  ('pyimod02_importers',
   'D:\\a\\TournamentStreamHelperTLS\\TournamentStreamHelperTLS\\build\\main\\localpycs\\pyimod02_importers.pyc',
   'PYMODULE'),
  ('pyimod03_ctypes',
   'D:\\a\\TournamentStreamHelperTLS\\TournamentStreamHelperTLS\\build\\main\\localpycs\\pyimod03_ctypes.pyc',
   'PYMODULE'),
  ('pyimod04_pywin32',
   'D:\\a\\TournamentStreamHelperTLS\\TournamentStreamHelperTLS\\build\\main\\localpycs\\pyimod04_pywin32.pyc',
   'PYMODULE'),
  ('pyiboot01_bootstrap',
   'C:\\hostedtoolcache\\windows\\Python\\3.11.7\\x64\\Lib\\site-packages\\PyInstaller\\loader\\pyiboot01_bootstrap.py',
   'PYSOURCE'),
  ('pyi_rth_pkgutil',
   'C:\\hostedtoolcache\\windows\\Python\\3.11.7\\x64\\Lib\\site-packages\\PyInstaller\\hooks\\rthooks\\pyi_rth_pkgutil.py',
   'PYSOURCE'),
  ('pyi_rth_inspect',
   'C:\\hostedtoolcache\\windows\\Python\\3.11.7\\x64\\Lib\\site-packages\\PyInstaller\\hooks\\rthooks\\pyi_rth_inspect.py',
   'PYSOURCE'),
  ('pyi_rth_multiprocessing',
   'C:\\hostedtoolcache\\windows\\Python\\3.11.7\\x64\\Lib\\site-packages\\PyInstaller\\hooks\\rthooks\\pyi_rth_multiprocessing.py',
   'PYSOURCE'),
  ('pyi_rth_pyside6',
   'C:\\hostedtoolcache\\windows\\Python\\3.11.7\\x64\\Lib\\site-packages\\PyInstaller\\hooks\\rthooks\\pyi_rth_pyside6.py',
   'PYSOURCE'),
  ('pyi_rth_pkgres',
   'C:\\hostedtoolcache\\windows\\Python\\3.11.7\\x64\\Lib\\site-packages\\PyInstaller\\hooks\\rthooks\\pyi_rth_pkgres.py',
   'PYSOURCE'),
  ('main',
   'D:\\a\\TournamentStreamHelperTLS\\TournamentStreamHelperTLS\\main.py',
   'PYSOURCE'),
  ('api-ms-win-crt-locale-l1-1-0.dll',
   'C:\\Program Files\\PowerShell\\7\\api-ms-win-crt-locale-l1-1-0.dll',
   'BINARY'),
  ('api-ms-win-crt-math-l1-1-0.dll',
   'C:\\Program Files\\PowerShell\\7\\api-ms-win-crt-math-l1-1-0.dll',
   'BINARY'),
  ('api-ms-win-crt-heap-l1-1-0.dll',
   'C:\\Program Files\\PowerShell\\7\\api-ms-win-crt-heap-l1-1-0.dll',
   'BINARY'),
  ('python311.dll',
   'C:\\hostedtoolcache\\windows\\Python\\3.11.7\\x64\\python311.dll',
   'BINARY'),
  ('api-ms-win-crt-runtime-l1-1-0.dll',
   'C:\\Program Files\\PowerShell\\7\\api-ms-win-crt-runtime-l1-1-0.dll',
   'BINARY'),
  ('VCRUNTIME140.dll',
   'C:\\hostedtoolcache\\windows\\Python\\3.11.7\\x64\\VCRUNTIME140.dll',
   'BINARY'),
  ('api-ms-win-crt-stdio-l1-1-0.dll',
   'C:\\Program Files\\PowerShell\\7\\api-ms-win-crt-stdio-l1-1-0.dll',
   'BINARY'),
  ('ucrtbase.dll', 'C:\\Program Files\\PowerShell\\7\\ucrtbase.dll', 'BINARY'),
  ('api-ms-win-crt-string-l1-1-0.dll',
   'C:\\Program Files\\PowerShell\\7\\api-ms-win-crt-string-l1-1-0.dll',
   'BINARY'),
  ('api-ms-win-crt-process-l1-1-0.dll',
   'C:\\Program Files\\PowerShell\\7\\api-ms-win-crt-process-l1-1-0.dll',
   'BINARY'),
  ('api-ms-win-crt-conio-l1-1-0.dll',
   'C:\\Program Files\\PowerShell\\7\\api-ms-win-crt-conio-l1-1-0.dll',
   'BINARY'),
  ('api-ms-win-crt-environment-l1-1-0.dll',
   'C:\\Program Files\\PowerShell\\7\\api-ms-win-crt-environment-l1-1-0.dll',
   'BINARY'),
  ('api-ms-win-crt-convert-l1-1-0.dll',
   'C:\\Program Files\\PowerShell\\7\\api-ms-win-crt-convert-l1-1-0.dll',
   'BINARY'),
  ('api-ms-win-crt-filesystem-l1-1-0.dll',
   'C:\\Program Files\\PowerShell\\7\\api-ms-win-crt-filesystem-l1-1-0.dll',
   'BINARY'),
  ('api-ms-win-crt-time-l1-1-0.dll',
   'C:\\Program Files\\PowerShell\\7\\api-ms-win-crt-time-l1-1-0.dll',
   'BINARY'),
  ('api-ms-win-core-profile-l1-1-0.dll',
   'C:\\Program Files\\PowerShell\\7\\api-ms-win-core-profile-l1-1-0.dll',
   'BINARY'),
  ('api-ms-win-core-synch-l1-2-0.dll',
   'C:\\Program Files\\PowerShell\\7\\api-ms-win-core-synch-l1-2-0.dll',
   'BINARY'),
  ('api-ms-win-core-namedpipe-l1-1-0.dll',
   'C:\\Program Files\\PowerShell\\7\\api-ms-win-core-namedpipe-l1-1-0.dll',
   'BINARY'),
  ('api-ms-win-core-file-l1-1-0.dll',
   'C:\\Program Files\\PowerShell\\7\\api-ms-win-core-file-l1-1-0.dll',
   'BINARY'),
  ('api-ms-win-core-util-l1-1-0.dll',
   'C:\\Program Files\\PowerShell\\7\\api-ms-win-core-util-l1-1-0.dll',
   'BINARY'),
  ('api-ms-win-core-debug-l1-1-0.dll',
   'C:\\Program Files\\PowerShell\\7\\api-ms-win-core-debug-l1-1-0.dll',
   'BINARY'),
  ('api-ms-win-core-libraryloader-l1-1-0.dll',
   'C:\\Program Files\\PowerShell\\7\\api-ms-win-core-libraryloader-l1-1-0.dll',
   'BINARY'),
  ('api-ms-win-core-processenvironment-l1-1-0.dll',
   'C:\\Program '
   'Files\\PowerShell\\7\\api-ms-win-core-processenvironment-l1-1-0.dll',
   'BINARY'),
  ('api-ms-win-core-processthreads-l1-1-0.dll',
   'C:\\Program '
   'Files\\PowerShell\\7\\api-ms-win-core-processthreads-l1-1-0.dll',
   'BINARY'),
  ('api-ms-win-core-console-l1-1-0.dll',
   'C:\\Program Files\\PowerShell\\7\\api-ms-win-core-console-l1-1-0.dll',
   'BINARY'),
  ('api-ms-win-core-handle-l1-1-0.dll',
   'C:\\Program Files\\PowerShell\\7\\api-ms-win-core-handle-l1-1-0.dll',
   'BINARY'),
  ('api-ms-win-core-memory-l1-1-0.dll',
   'C:\\Program Files\\PowerShell\\7\\api-ms-win-core-memory-l1-1-0.dll',
   'BINARY'),
  ('api-ms-win-core-file-l1-2-0.dll',
   'C:\\Program Files\\PowerShell\\7\\api-ms-win-core-file-l1-2-0.dll',
   'BINARY'),
  ('api-ms-win-core-errorhandling-l1-1-0.dll',
   'C:\\Program Files\\PowerShell\\7\\api-ms-win-core-errorhandling-l1-1-0.dll',
   'BINARY'),
  ('api-ms-win-core-rtlsupport-l1-1-0.dll',
   'C:\\Program Files\\PowerShell\\7\\api-ms-win-core-rtlsupport-l1-1-0.dll',
   'BINARY'),
  ('api-ms-win-core-sysinfo-l1-1-0.dll',
   'C:\\Program Files\\PowerShell\\7\\api-ms-win-core-sysinfo-l1-1-0.dll',
   'BINARY'),
  ('api-ms-win-core-file-l2-1-0.dll',
   'C:\\Program Files\\PowerShell\\7\\api-ms-win-core-file-l2-1-0.dll',
   'BINARY'),
  ('api-ms-win-core-timezone-l1-1-0.dll',
   'C:\\Program Files\\PowerShell\\7\\api-ms-win-core-timezone-l1-1-0.dll',
   'BINARY'),
  ('api-ms-win-core-interlocked-l1-1-0.dll',
   'C:\\Program Files\\PowerShell\\7\\api-ms-win-core-interlocked-l1-1-0.dll',
   'BINARY'),
  ('api-ms-win-core-datetime-l1-1-0.dll',
   'C:\\Program Files\\PowerShell\\7\\api-ms-win-core-datetime-l1-1-0.dll',
   'BINARY'),
  ('api-ms-win-core-localization-l1-2-0.dll',
   'C:\\Program Files\\PowerShell\\7\\api-ms-win-core-localization-l1-2-0.dll',
   'BINARY'),
  ('api-ms-win-core-fibers-l1-1-0.dll',
   'C:\\Program Files\\PowerShell\\7\\api-ms-win-core-fibers-l1-1-0.dll',
   'BINARY'),
  ('api-ms-win-core-string-l1-1-0.dll',
   'C:\\Program Files\\PowerShell\\7\\api-ms-win-core-string-l1-1-0.dll',
   'BINARY'),
  ('api-ms-win-core-processthreads-l1-1-1.dll',
   'C:\\Program '
   'Files\\PowerShell\\7\\api-ms-win-core-processthreads-l1-1-1.dll',
   'BINARY'),
  ('api-ms-win-core-heap-l1-1-0.dll',
   'C:\\Program Files\\PowerShell\\7\\api-ms-win-core-heap-l1-1-0.dll',
   'BINARY'),
  ('api-ms-win-core-synch-l1-1-0.dll',
   'C:\\Program Files\\PowerShell\\7\\api-ms-win-core-synch-l1-1-0.dll',
   'BINARY'),
  ('Cryptodome\\Hash\\_MD5.pyd',
   'C:\\hostedtoolcache\\windows\\Python\\3.11.7\\x64\\Lib\\site-packages\\Cryptodome\\Hash\\_MD5.pyd',
   'BINARY'),
  ('Cryptodome\\Cipher\\_pkcs1_decode.pyd',
   'C:\\hostedtoolcache\\windows\\Python\\3.11.7\\x64\\Lib\\site-packages\\Cryptodome\\Cipher\\_pkcs1_decode.pyd',
   'BINARY'),
  ('Cryptodome\\Hash\\_ghash_portable.pyd',
   'C:\\hostedtoolcache\\windows\\Python\\3.11.7\\x64\\Lib\\site-packages\\Cryptodome\\Hash\\_ghash_portable.pyd',
   'BINARY'),
  ('Cryptodome\\Cipher\\_chacha20.pyd',
   'C:\\hostedtoolcache\\windows\\Python\\3.11.7\\x64\\Lib\\site-packages\\Cryptodome\\Cipher\\_chacha20.pyd',
   'BINARY'),
  ('Cryptodome\\Hash\\_MD4.pyd',
   'C:\\hostedtoolcache\\windows\\Python\\3.11.7\\x64\\Lib\\site-packages\\Cryptodome\\Hash\\_MD4.pyd',
   'BINARY'),
  ('Cryptodome\\Cipher\\_raw_aes.pyd',
   'C:\\hostedtoolcache\\windows\\Python\\3.11.7\\x64\\Lib\\site-packages\\Cryptodome\\Cipher\\_raw_aes.pyd',
   'BINARY'),
  ('PySide6\\plugins\\platforms\\qoffscreen.dll',
   'C:\\hostedtoolcache\\windows\\Python\\3.11.7\\x64\\Lib\\site-packages\\PySide6\\plugins\\platforms\\qoffscreen.dll',
   'BINARY'),
  ('PySide6\\plugins\\imageformats\\qwbmp.dll',
   'C:\\hostedtoolcache\\windows\\Python\\3.11.7\\x64\\Lib\\site-packages\\PySide6\\plugins\\imageformats\\qwbmp.dll',
   'BINARY'),
  ('PySide6\\opengl32sw.dll',
   'C:\\hostedtoolcache\\windows\\Python\\3.11.7\\x64\\Lib\\site-packages\\PySide6\\opengl32sw.dll',
   'BINARY'),
  ('PySide6\\plugins\\networkinformation\\qnetworklistmanager.dll',
   'C:\\hostedtoolcache\\windows\\Python\\3.11.7\\x64\\Lib\\site-packages\\PySide6\\plugins\\networkinformation\\qnetworklistmanager.dll',
   'BINARY'),
  ('PySide6\\plugins\\platforms\\qdirect2d.dll',
   'C:\\hostedtoolcache\\windows\\Python\\3.11.7\\x64\\Lib\\site-packages\\PySide6\\plugins\\platforms\\qdirect2d.dll',
   'BINARY'),
  ('PySide6\\plugins\\imageformats\\qwebp.dll',
   'C:\\hostedtoolcache\\windows\\Python\\3.11.7\\x64\\Lib\\site-packages\\PySide6\\plugins\\imageformats\\qwebp.dll',
   'BINARY'),
  ('Cryptodome\\Hash\\_poly1305.pyd',
   'C:\\hostedtoolcache\\windows\\Python\\3.11.7\\x64\\Lib\\site-packages\\Cryptodome\\Hash\\_poly1305.pyd',
   'BINARY'),
  ('Cryptodome\\Protocol\\_scrypt.pyd',
   'C:\\hostedtoolcache\\windows\\Python\\3.11.7\\x64\\Lib\\site-packages\\Cryptodome\\Protocol\\_scrypt.pyd',
   'BINARY'),
  ('Cryptodome\\Cipher\\_raw_ecb.pyd',
   'C:\\hostedtoolcache\\windows\\Python\\3.11.7\\x64\\Lib\\site-packages\\Cryptodome\\Cipher\\_raw_ecb.pyd',
   'BINARY'),
  ('PySide6\\plugins\\styles\\qwindowsvistastyle.dll',
   'C:\\hostedtoolcache\\windows\\Python\\3.11.7\\x64\\Lib\\site-packages\\PySide6\\plugins\\styles\\qwindowsvistastyle.dll',
   'BINARY'),
  ('Cryptodome\\Hash\\_SHA256.pyd',
   'C:\\hostedtoolcache\\windows\\Python\\3.11.7\\x64\\Lib\\site-packages\\Cryptodome\\Hash\\_SHA256.pyd',
   'BINARY'),
  ('Cryptodome\\Cipher\\_raw_cast.pyd',
   'C:\\hostedtoolcache\\windows\\Python\\3.11.7\\x64\\Lib\\site-packages\\Cryptodome\\Cipher\\_raw_cast.pyd',
   'BINARY'),
  ('Cryptodome\\Hash\\_SHA224.pyd',
   'C:\\hostedtoolcache\\windows\\Python\\3.11.7\\x64\\Lib\\site-packages\\Cryptodome\\Hash\\_SHA224.pyd',
   'BINARY'),
  ('Cryptodome\\Hash\\_SHA384.pyd',
   'C:\\hostedtoolcache\\windows\\Python\\3.11.7\\x64\\Lib\\site-packages\\Cryptodome\\Hash\\_SHA384.pyd',
   'BINARY'),
  ('Cryptodome\\PublicKey\\_ed448.pyd',
   'C:\\hostedtoolcache\\windows\\Python\\3.11.7\\x64\\Lib\\site-packages\\Cryptodome\\PublicKey\\_ed448.pyd',
   'BINARY'),
  ('Cryptodome\\Cipher\\_raw_ctr.pyd',
   'C:\\hostedtoolcache\\windows\\Python\\3.11.7\\x64\\Lib\\site-packages\\Cryptodome\\Cipher\\_raw_ctr.pyd',
   'BINARY'),
  ('Cryptodome\\Cipher\\_raw_eksblowfish.pyd',
   'C:\\hostedtoolcache\\windows\\Python\\3.11.7\\x64\\Lib\\site-packages\\Cryptodome\\Cipher\\_raw_eksblowfish.pyd',
   'BINARY'),
  ('Cryptodome\\Cipher\\_raw_des.pyd',
   'C:\\hostedtoolcache\\windows\\Python\\3.11.7\\x64\\Lib\\site-packages\\Cryptodome\\Cipher\\_raw_des.pyd',
   'BINARY'),
  ('Cryptodome\\Cipher\\_raw_ocb.pyd',
   'C:\\hostedtoolcache\\windows\\Python\\3.11.7\\x64\\Lib\\site-packages\\Cryptodome\\Cipher\\_raw_ocb.pyd',
   'BINARY'),
  ('PySide6\\plugins\\imageformats\\qtga.dll',
   'C:\\hostedtoolcache\\windows\\Python\\3.11.7\\x64\\Lib\\site-packages\\PySide6\\plugins\\imageformats\\qtga.dll',
   'BINARY'),
  ('PySide6\\plugins\\imageformats\\qgif.dll',
   'C:\\hostedtoolcache\\windows\\Python\\3.11.7\\x64\\Lib\\site-packages\\PySide6\\plugins\\imageformats\\qgif.dll',
   'BINARY'),
  ('Cryptodome\\Hash\\_SHA1.pyd',
   'C:\\hostedtoolcache\\windows\\Python\\3.11.7\\x64\\Lib\\site-packages\\Cryptodome\\Hash\\_SHA1.pyd',
   'BINARY'),
  ('PySide6\\plugins\\imageformats\\qpdf.dll',
   'C:\\hostedtoolcache\\windows\\Python\\3.11.7\\x64\\Lib\\site-packages\\PySide6\\plugins\\imageformats\\qpdf.dll',
   'BINARY'),
  ('Cryptodome\\Hash\\_SHA512.pyd',
   'C:\\hostedtoolcache\\windows\\Python\\3.11.7\\x64\\Lib\\site-packages\\Cryptodome\\Hash\\_SHA512.pyd',
   'BINARY'),
  ('PySide6\\plugins\\tls\\qopensslbackend.dll',
   'C:\\hostedtoolcache\\windows\\Python\\3.11.7\\x64\\Lib\\site-packages\\PySide6\\plugins\\tls\\qopensslbackend.dll',
   'BINARY'),
  ('Cryptodome\\Cipher\\_Salsa20.pyd',
   'C:\\hostedtoolcache\\windows\\Python\\3.11.7\\x64\\Lib\\site-packages\\Cryptodome\\Cipher\\_Salsa20.pyd',
   'BINARY'),
  ('Cryptodome\\PublicKey\\_x25519.pyd',
   'C:\\hostedtoolcache\\windows\\Python\\3.11.7\\x64\\Lib\\site-packages\\Cryptodome\\PublicKey\\_x25519.pyd',
   'BINARY'),
  ('Cryptodome\\Cipher\\_raw_cbc.pyd',
   'C:\\hostedtoolcache\\windows\\Python\\3.11.7\\x64\\Lib\\site-packages\\Cryptodome\\Cipher\\_raw_cbc.pyd',
   'BINARY'),
  ('Cryptodome\\Hash\\_RIPEMD160.pyd',
   'C:\\hostedtoolcache\\windows\\Python\\3.11.7\\x64\\Lib\\site-packages\\Cryptodome\\Hash\\_RIPEMD160.pyd',
   'BINARY'),
  ('Cryptodome\\Cipher\\_raw_aesni.pyd',
   'C:\\hostedtoolcache\\windows\\Python\\3.11.7\\x64\\Lib\\site-packages\\Cryptodome\\Cipher\\_raw_aesni.pyd',
   'BINARY'),
  ('Cryptodome\\Hash\\_BLAKE2s.pyd',
   'C:\\hostedtoolcache\\windows\\Python\\3.11.7\\x64\\Lib\\site-packages\\Cryptodome\\Hash\\_BLAKE2s.pyd',
   'BINARY'),
  ('PySide6\\plugins\\imageformats\\qsvg.dll',
   'C:\\hostedtoolcache\\windows\\Python\\3.11.7\\x64\\Lib\\site-packages\\PySide6\\plugins\\imageformats\\qsvg.dll',
   'BINARY'),
  ('Cryptodome\\Hash\\_BLAKE2b.pyd',
   'C:\\hostedtoolcache\\windows\\Python\\3.11.7\\x64\\Lib\\site-packages\\Cryptodome\\Hash\\_BLAKE2b.pyd',
   'BINARY'),
  ('Cryptodome\\Cipher\\_raw_arc2.pyd',
   'C:\\hostedtoolcache\\windows\\Python\\3.11.7\\x64\\Lib\\site-packages\\Cryptodome\\Cipher\\_raw_arc2.pyd',
   'BINARY'),
  ('PySide6\\plugins\\tls\\qschannelbackend.dll',
   'C:\\hostedtoolcache\\windows\\Python\\3.11.7\\x64\\Lib\\site-packages\\PySide6\\plugins\\tls\\qschannelbackend.dll',
   'BINARY'),
  ('Cryptodome\\Util\\_cpuid_c.pyd',
   'C:\\hostedtoolcache\\windows\\Python\\3.11.7\\x64\\Lib\\site-packages\\Cryptodome\\Util\\_cpuid_c.pyd',
   'BINARY'),
  ('Cryptodome\\Hash\\_ghash_clmul.pyd',
   'C:\\hostedtoolcache\\windows\\Python\\3.11.7\\x64\\Lib\\site-packages\\Cryptodome\\Hash\\_ghash_clmul.pyd',
   'BINARY'),
  ('Cryptodome\\Cipher\\_raw_blowfish.pyd',
   'C:\\hostedtoolcache\\windows\\Python\\3.11.7\\x64\\Lib\\site-packages\\Cryptodome\\Cipher\\_raw_blowfish.pyd',
   'BINARY'),
  ('PySide6\\plugins\\imageformats\\qico.dll',
   'C:\\hostedtoolcache\\windows\\Python\\3.11.7\\x64\\Lib\\site-packages\\PySide6\\plugins\\imageformats\\qico.dll',
   'BINARY'),
  ('Cryptodome\\Cipher\\_raw_cfb.pyd',
   'C:\\hostedtoolcache\\windows\\Python\\3.11.7\\x64\\Lib\\site-packages\\Cryptodome\\Cipher\\_raw_cfb.pyd',
   'BINARY'),
  ('PySide6\\plugins\\generic\\qtuiotouchplugin.dll',
   'C:\\hostedtoolcache\\windows\\Python\\3.11.7\\x64\\Lib\\site-packages\\PySide6\\plugins\\generic\\qtuiotouchplugin.dll',
   'BINARY'),
  ('Cryptodome\\Util\\_strxor.pyd',
   'C:\\hostedtoolcache\\windows\\Python\\3.11.7\\x64\\Lib\\site-packages\\Cryptodome\\Util\\_strxor.pyd',
   'BINARY'),
  ('Cryptodome\\Cipher\\_raw_ofb.pyd',
   'C:\\hostedtoolcache\\windows\\Python\\3.11.7\\x64\\Lib\\site-packages\\Cryptodome\\Cipher\\_raw_ofb.pyd',
   'BINARY'),
  ('PySide6\\plugins\\platforms\\qwindows.dll',
   'C:\\hostedtoolcache\\windows\\Python\\3.11.7\\x64\\Lib\\site-packages\\PySide6\\plugins\\platforms\\qwindows.dll',
   'BINARY'),
  ('Cryptodome\\PublicKey\\_ed25519.pyd',
   'C:\\hostedtoolcache\\windows\\Python\\3.11.7\\x64\\Lib\\site-packages\\Cryptodome\\PublicKey\\_ed25519.pyd',
   'BINARY'),
  ('PySide6\\plugins\\platforminputcontexts\\qtvirtualkeyboardplugin.dll',
   'C:\\hostedtoolcache\\windows\\Python\\3.11.7\\x64\\Lib\\site-packages\\PySide6\\plugins\\platforminputcontexts\\qtvirtualkeyboardplugin.dll',
   'BINARY'),
  ('Cryptodome\\Cipher\\_raw_des3.pyd',
   'C:\\hostedtoolcache\\windows\\Python\\3.11.7\\x64\\Lib\\site-packages\\Cryptodome\\Cipher\\_raw_des3.pyd',
   'BINARY'),
  ('PySide6\\plugins\\imageformats\\qtiff.dll',
   'C:\\hostedtoolcache\\windows\\Python\\3.11.7\\x64\\Lib\\site-packages\\PySide6\\plugins\\imageformats\\qtiff.dll',
   'BINARY'),
  ('Cryptodome\\Hash\\_keccak.pyd',
   'C:\\hostedtoolcache\\windows\\Python\\3.11.7\\x64\\Lib\\site-packages\\Cryptodome\\Hash\\_keccak.pyd',
   'BINARY'),
  ('Cryptodome\\Hash\\_MD2.pyd',
   'C:\\hostedtoolcache\\windows\\Python\\3.11.7\\x64\\Lib\\site-packages\\Cryptodome\\Hash\\_MD2.pyd',
   'BINARY'),
  ('Cryptodome\\Math\\_modexp.pyd',
   'C:\\hostedtoolcache\\windows\\Python\\3.11.7\\x64\\Lib\\site-packages\\Cryptodome\\Math\\_modexp.pyd',
   'BINARY'),
  ('Cryptodome\\Cipher\\_ARC4.pyd',
   'C:\\hostedtoolcache\\windows\\Python\\3.11.7\\x64\\Lib\\site-packages\\Cryptodome\\Cipher\\_ARC4.pyd',
   'BINARY'),
  ('PySide6\\plugins\\platforms\\qminimal.dll',
   'C:\\hostedtoolcache\\windows\\Python\\3.11.7\\x64\\Lib\\site-packages\\PySide6\\plugins\\platforms\\qminimal.dll',
   'BINARY'),
  ('PySide6\\plugins\\imageformats\\qjpeg.dll',
   'C:\\hostedtoolcache\\windows\\Python\\3.11.7\\x64\\Lib\\site-packages\\PySide6\\plugins\\imageformats\\qjpeg.dll',
   'BINARY'),
  ('Cryptodome\\PublicKey\\_ec_ws.pyd',
   'C:\\hostedtoolcache\\windows\\Python\\3.11.7\\x64\\Lib\\site-packages\\Cryptodome\\PublicKey\\_ec_ws.pyd',
   'BINARY'),
  ('PySide6\\plugins\\tls\\qcertonlybackend.dll',
   'C:\\hostedtoolcache\\windows\\Python\\3.11.7\\x64\\Lib\\site-packages\\PySide6\\plugins\\tls\\qcertonlybackend.dll',
   'BINARY'),
  ('PySide6\\plugins\\imageformats\\qicns.dll',
   'C:\\hostedtoolcache\\windows\\Python\\3.11.7\\x64\\Lib\\site-packages\\PySide6\\plugins\\imageformats\\qicns.dll',
   'BINARY'),
  ('PySide6\\plugins\\iconengines\\qsvgicon.dll',
   'C:\\hostedtoolcache\\windows\\Python\\3.11.7\\x64\\Lib\\site-packages\\PySide6\\plugins\\iconengines\\qsvgicon.dll',
   'BINARY'),
  ('select.pyd',
   'C:\\hostedtoolcache\\windows\\Python\\3.11.7\\x64\\DLLs\\select.pyd',
   'EXTENSION'),
  ('_lzma.pyd',
   'C:\\hostedtoolcache\\windows\\Python\\3.11.7\\x64\\DLLs\\_lzma.pyd',
   'EXTENSION'),
  ('_bz2.pyd',
   'C:\\hostedtoolcache\\windows\\Python\\3.11.7\\x64\\DLLs\\_bz2.pyd',
   'EXTENSION'),
  ('_socket.pyd',
   'C:\\hostedtoolcache\\windows\\Python\\3.11.7\\x64\\DLLs\\_socket.pyd',
   'EXTENSION'),
  ('_decimal.pyd',
   'C:\\hostedtoolcache\\windows\\Python\\3.11.7\\x64\\DLLs\\_decimal.pyd',
   'EXTENSION'),
  ('_hashlib.pyd',
   'C:\\hostedtoolcache\\windows\\Python\\3.11.7\\x64\\DLLs\\_hashlib.pyd',
   'EXTENSION'),
  ('_ctypes.pyd',
   'C:\\hostedtoolcache\\windows\\Python\\3.11.7\\x64\\DLLs\\_ctypes.pyd',
   'EXTENSION'),
  ('markupsafe\\_speedups.cp311-win_amd64.pyd',
   'C:\\hostedtoolcache\\windows\\Python\\3.11.7\\x64\\Lib\\site-packages\\markupsafe\\_speedups.cp311-win_amd64.pyd',
   'EXTENSION'),
  ('_overlapped.pyd',
   'C:\\hostedtoolcache\\windows\\Python\\3.11.7\\x64\\DLLs\\_overlapped.pyd',
   'EXTENSION'),
  ('_ssl.pyd',
   'C:\\hostedtoolcache\\windows\\Python\\3.11.7\\x64\\DLLs\\_ssl.pyd',
   'EXTENSION'),
  ('_queue.pyd',
   'C:\\hostedtoolcache\\windows\\Python\\3.11.7\\x64\\DLLs\\_queue.pyd',
   'EXTENSION'),
  ('_multiprocessing.pyd',
   'C:\\hostedtoolcache\\windows\\Python\\3.11.7\\x64\\DLLs\\_multiprocessing.pyd',
   'EXTENSION'),
  ('pyexpat.pyd',
   'C:\\hostedtoolcache\\windows\\Python\\3.11.7\\x64\\DLLs\\pyexpat.pyd',
   'EXTENSION'),
  ('_asyncio.pyd',
   'C:\\hostedtoolcache\\windows\\Python\\3.11.7\\x64\\DLLs\\_asyncio.pyd',
   'EXTENSION'),
  ('unicodedata.pyd',
   'C:\\hostedtoolcache\\windows\\Python\\3.11.7\\x64\\DLLs\\unicodedata.pyd',
   'EXTENSION'),
  ('PIL\\_webp.cp311-win_amd64.pyd',
   'C:\\hostedtoolcache\\windows\\Python\\3.11.7\\x64\\Lib\\site-packages\\PIL\\_webp.cp311-win_amd64.pyd',
   'EXTENSION'),
  ('PIL\\_imagingtk.cp311-win_amd64.pyd',
   'C:\\hostedtoolcache\\windows\\Python\\3.11.7\\x64\\Lib\\site-packages\\PIL\\_imagingtk.cp311-win_amd64.pyd',
   'EXTENSION'),
  ('PIL\\_imagingcms.cp311-win_amd64.pyd',
   'C:\\hostedtoolcache\\windows\\Python\\3.11.7\\x64\\Lib\\site-packages\\PIL\\_imagingcms.cp311-win_amd64.pyd',
   'EXTENSION'),
  ('PIL\\_imagingmath.cp311-win_amd64.pyd',
   'C:\\hostedtoolcache\\windows\\Python\\3.11.7\\x64\\Lib\\site-packages\\PIL\\_imagingmath.cp311-win_amd64.pyd',
   'EXTENSION'),
  ('PIL\\_imaging.cp311-win_amd64.pyd',
   'C:\\hostedtoolcache\\windows\\Python\\3.11.7\\x64\\Lib\\site-packages\\PIL\\_imaging.cp311-win_amd64.pyd',
   'EXTENSION'),
  ('_uuid.pyd',
   'C:\\hostedtoolcache\\windows\\Python\\3.11.7\\x64\\DLLs\\_uuid.pyd',
   'EXTENSION'),
  ('_elementtree.pyd',
   'C:\\hostedtoolcache\\windows\\Python\\3.11.7\\x64\\DLLs\\_elementtree.pyd',
   'EXTENSION'),
  ('PySide6\\QtUiTools.pyd',
   'C:\\hostedtoolcache\\windows\\Python\\3.11.7\\x64\\Lib\\site-packages\\PySide6\\QtUiTools.pyd',
   'EXTENSION'),
  ('PySide6\\QtGui.pyd',
   'C:\\hostedtoolcache\\windows\\Python\\3.11.7\\x64\\Lib\\site-packages\\PySide6\\QtGui.pyd',
   'EXTENSION'),
  ('PySide6\\QtOpenGLWidgets.pyd',
   'C:\\hostedtoolcache\\windows\\Python\\3.11.7\\x64\\Lib\\site-packages\\PySide6\\QtOpenGLWidgets.pyd',
   'EXTENSION'),
  ('PySide6\\QtOpenGL.pyd',
   'C:\\hostedtoolcache\\windows\\Python\\3.11.7\\x64\\Lib\\site-packages\\PySide6\\QtOpenGL.pyd',
   'EXTENSION'),
  ('PySide6\\QtWidgets.pyd',
   'C:\\hostedtoolcache\\windows\\Python\\3.11.7\\x64\\Lib\\site-packages\\PySide6\\QtWidgets.pyd',
   'EXTENSION'),
  ('PySide6\\QtNetwork.pyd',
   'C:\\hostedtoolcache\\windows\\Python\\3.11.7\\x64\\Lib\\site-packages\\PySide6\\QtNetwork.pyd',
   'EXTENSION'),
  ('shiboken6\\Shiboken.pyd',
   'C:\\hostedtoolcache\\windows\\Python\\3.11.7\\x64\\Lib\\site-packages\\shiboken6\\Shiboken.pyd',
   'EXTENSION'),
  ('PySide6\\QtCore.pyd',
   'C:\\hostedtoolcache\\windows\\Python\\3.11.7\\x64\\Lib\\site-packages\\PySide6\\QtCore.pyd',
   'EXTENSION'),
  ('_brotli.cp311-win_amd64.pyd',
   'C:\\hostedtoolcache\\windows\\Python\\3.11.7\\x64\\Lib\\site-packages\\_brotli.cp311-win_amd64.pyd',
   'EXTENSION'),
  ('pyzstd\\c\\_zstd.cp311-win_amd64.pyd',
   'C:\\hostedtoolcache\\windows\\Python\\3.11.7\\x64\\Lib\\site-packages\\pyzstd\\c\\_zstd.cp311-win_amd64.pyd',
   'EXTENSION'),
  ('pyppmd\\c\\_ppmd.cp311-win_amd64.pyd',
   'C:\\hostedtoolcache\\windows\\Python\\3.11.7\\x64\\Lib\\site-packages\\pyppmd\\c\\_ppmd.cp311-win_amd64.pyd',
   'EXTENSION'),
  ('inflate64\\_inflate64.cp311-win_amd64.pyd',
   'C:\\hostedtoolcache\\windows\\Python\\3.11.7\\x64\\Lib\\site-packages\\inflate64\\_inflate64.cp311-win_amd64.pyd',
   'EXTENSION'),
  ('bcj\\_bcj.cp311-win_amd64.pyd',
   'C:\\hostedtoolcache\\windows\\Python\\3.11.7\\x64\\Lib\\site-packages\\bcj\\_bcj.cp311-win_amd64.pyd',
   'EXTENSION'),
  ('psutil\\_psutil_windows.pyd',
   'C:\\hostedtoolcache\\windows\\Python\\3.11.7\\x64\\Lib\\site-packages\\psutil\\_psutil_windows.pyd',
   'EXTENSION'),
  ('charset_normalizer\\md__mypyc.cp311-win_amd64.pyd',
   'C:\\hostedtoolcache\\windows\\Python\\3.11.7\\x64\\Lib\\site-packages\\charset_normalizer\\md__mypyc.cp311-win_amd64.pyd',
   'EXTENSION'),
  ('charset_normalizer\\md.cp311-win_amd64.pyd',
   'C:\\hostedtoolcache\\windows\\Python\\3.11.7\\x64\\Lib\\site-packages\\charset_normalizer\\md.cp311-win_amd64.pyd',
   'EXTENSION'),
  ('PySide6\\QtDataVisualization.pyd',
   'C:\\hostedtoolcache\\windows\\Python\\3.11.7\\x64\\Lib\\site-packages\\PySide6\\QtDataVisualization.pyd',
   'EXTENSION'),
  ('PySide6\\QtSvg.pyd',
   'C:\\hostedtoolcache\\windows\\Python\\3.11.7\\x64\\Lib\\site-packages\\PySide6\\QtSvg.pyd',
   'EXTENSION'),
  ('PySide6\\Qt6Gui.dll',
   'C:\\hostedtoolcache\\windows\\Python\\3.11.7\\x64\\Lib\\site-packages\\PySide6\\Qt6Gui.dll',
   'BINARY'),
  ('PySide6\\Qt6Core.dll',
   'C:\\hostedtoolcache\\windows\\Python\\3.11.7\\x64\\Lib\\site-packages\\PySide6\\Qt6Core.dll',
   'BINARY'),
  ('VCRUNTIME140_1.dll',
   'C:\\hostedtoolcache\\windows\\Python\\3.11.7\\x64\\VCRUNTIME140_1.dll',
   'BINARY'),
  ('PySide6\\Qt6Network.dll',
   'C:\\hostedtoolcache\\windows\\Python\\3.11.7\\x64\\Lib\\site-packages\\PySide6\\Qt6Network.dll',
   'BINARY'),
  ('shiboken6\\MSVCP140.dll',
   'C:\\hostedtoolcache\\windows\\Python\\3.11.7\\x64\\Lib\\site-packages\\shiboken6\\MSVCP140.dll',
   'BINARY'),
  ('api-ms-win-core-winrt-l1-1-0.dll',
   'C:\\Program Files\\PowerShell\\7\\api-ms-win-core-winrt-l1-1-0.dll',
   'BINARY'),
  ('api-ms-win-core-winrt-string-l1-1-0.dll',
   'C:\\Program Files\\PowerShell\\7\\api-ms-win-core-winrt-string-l1-1-0.dll',
   'BINARY'),
  ('api-ms-win-crt-utility-l1-1-0.dll',
   'C:\\Program Files\\PowerShell\\7\\api-ms-win-crt-utility-l1-1-0.dll',
   'BINARY'),
  ('PySide6\\Qt6Widgets.dll',
   'C:\\hostedtoolcache\\windows\\Python\\3.11.7\\x64\\Lib\\site-packages\\PySide6\\Qt6Widgets.dll',
   'BINARY'),
  ('PySide6\\Qt6Pdf.dll',
   'C:\\hostedtoolcache\\windows\\Python\\3.11.7\\x64\\Lib\\site-packages\\PySide6\\Qt6Pdf.dll',
   'BINARY'),
  ('PySide6\\Qt6Svg.dll',
   'C:\\hostedtoolcache\\windows\\Python\\3.11.7\\x64\\Lib\\site-packages\\PySide6\\Qt6Svg.dll',
   'BINARY'),
  ('PySide6\\Qt6VirtualKeyboard.dll',
   'C:\\hostedtoolcache\\windows\\Python\\3.11.7\\x64\\Lib\\site-packages\\PySide6\\Qt6VirtualKeyboard.dll',
   'BINARY'),
  ('libcrypto-3.dll',
   'C:\\hostedtoolcache\\windows\\Python\\3.11.7\\x64\\DLLs\\libcrypto-3.dll',
   'BINARY'),
  ('libffi-8.dll',
   'C:\\hostedtoolcache\\windows\\Python\\3.11.7\\x64\\DLLs\\libffi-8.dll',
   'BINARY'),
  ('libssl-3.dll',
   'C:\\hostedtoolcache\\windows\\Python\\3.11.7\\x64\\DLLs\\libssl-3.dll',
   'BINARY'),
  ('python3.dll',
   'C:\\hostedtoolcache\\windows\\Python\\3.11.7\\x64\\python3.dll',
   'BINARY'),
  ('PySide6\\pyside6.abi3.dll',
   'C:\\hostedtoolcache\\windows\\Python\\3.11.7\\x64\\Lib\\site-packages\\PySide6\\pyside6.abi3.dll',
   'BINARY'),
  ('PySide6\\VCRUNTIME140_1.dll',
   'C:\\hostedtoolcache\\windows\\Python\\3.11.7\\x64\\Lib\\site-packages\\PySide6\\VCRUNTIME140_1.dll',
   'BINARY'),
  ('PySide6\\Qt6UiTools.dll',
   'C:\\hostedtoolcache\\windows\\Python\\3.11.7\\x64\\Lib\\site-packages\\PySide6\\Qt6UiTools.dll',
   'BINARY'),
  ('shiboken6\\shiboken6.abi3.dll',
   'C:\\hostedtoolcache\\windows\\Python\\3.11.7\\x64\\Lib\\site-packages\\shiboken6\\shiboken6.abi3.dll',
   'BINARY'),
  ('PySide6\\MSVCP140.dll',
   'C:\\hostedtoolcache\\windows\\Python\\3.11.7\\x64\\Lib\\site-packages\\PySide6\\MSVCP140.dll',
   'BINARY'),
  ('PySide6\\MSVCP140_2.dll',
   'C:\\hostedtoolcache\\windows\\Python\\3.11.7\\x64\\Lib\\site-packages\\PySide6\\MSVCP140_2.dll',
   'BINARY'),
  ('PySide6\\Qt6OpenGLWidgets.dll',
   'C:\\hostedtoolcache\\windows\\Python\\3.11.7\\x64\\Lib\\site-packages\\PySide6\\Qt6OpenGLWidgets.dll',
   'BINARY'),
  ('PySide6\\Qt6OpenGL.dll',
   'C:\\hostedtoolcache\\windows\\Python\\3.11.7\\x64\\Lib\\site-packages\\PySide6\\Qt6OpenGL.dll',
   'BINARY'),
  ('shiboken6\\VCRUNTIME140_1.dll',
   'C:\\hostedtoolcache\\windows\\Python\\3.11.7\\x64\\Lib\\site-packages\\shiboken6\\VCRUNTIME140_1.dll',
   'BINARY'),
  ('PySide6\\Qt6DataVisualization.dll',
   'C:\\hostedtoolcache\\windows\\Python\\3.11.7\\x64\\Lib\\site-packages\\PySide6\\Qt6DataVisualization.dll',
   'BINARY'),
  ('PySide6\\MSVCP140_1.dll',
   'C:\\hostedtoolcache\\windows\\Python\\3.11.7\\x64\\Lib\\site-packages\\PySide6\\MSVCP140_1.dll',
   'BINARY'),
  ('PySide6\\Qt6Quick.dll',
   'C:\\hostedtoolcache\\windows\\Python\\3.11.7\\x64\\Lib\\site-packages\\PySide6\\Qt6Quick.dll',
   'BINARY'),
  ('PySide6\\Qt6Qml.dll',
   'C:\\hostedtoolcache\\windows\\Python\\3.11.7\\x64\\Lib\\site-packages\\PySide6\\Qt6Qml.dll',
   'BINARY'),
  ('PySide6\\Qt6QmlModels.dll',
   'C:\\hostedtoolcache\\windows\\Python\\3.11.7\\x64\\Lib\\site-packages\\PySide6\\Qt6QmlModels.dll',
   'BINARY'),
  ('base_library.zip',
   'D:\\a\\TournamentStreamHelperTLS\\TournamentStreamHelperTLS\\build\\main\\base_library.zip',
   'DATA'),
  ('PySide6\\translations\\qt_help_it.qm',
   'C:\\hostedtoolcache\\windows\\Python\\3.11.7\\x64\\Lib\\site-packages\\PySide6\\translations\\qt_help_it.qm',
   'DATA'),
  ('PySide6\\translations\\qtbase_gd.qm',
   'C:\\hostedtoolcache\\windows\\Python\\3.11.7\\x64\\Lib\\site-packages\\PySide6\\translations\\qtbase_gd.qm',
   'DATA'),
  ('PySide6\\translations\\qt_help_ru.qm',
   'C:\\hostedtoolcache\\windows\\Python\\3.11.7\\x64\\Lib\\site-packages\\PySide6\\translations\\qt_help_ru.qm',
   'DATA'),
  ('PySide6\\translations\\qtbase_hu.qm',
   'C:\\hostedtoolcache\\windows\\Python\\3.11.7\\x64\\Lib\\site-packages\\PySide6\\translations\\qtbase_hu.qm',
   'DATA'),
  ('PySide6\\translations\\qt_cs.qm',
   'C:\\hostedtoolcache\\windows\\Python\\3.11.7\\x64\\Lib\\site-packages\\PySide6\\translations\\qt_cs.qm',
   'DATA'),
  ('PySide6\\translations\\qt_help_nn.qm',
   'C:\\hostedtoolcache\\windows\\Python\\3.11.7\\x64\\Lib\\site-packages\\PySide6\\translations\\qt_help_nn.qm',
   'DATA'),
  ('PySide6\\translations\\qtbase_da.qm',
   'C:\\hostedtoolcache\\windows\\Python\\3.11.7\\x64\\Lib\\site-packages\\PySide6\\translations\\qtbase_da.qm',
   'DATA'),
  ('PySide6\\translations\\qt_help_fr.qm',
   'C:\\hostedtoolcache\\windows\\Python\\3.11.7\\x64\\Lib\\site-packages\\PySide6\\translations\\qt_help_fr.qm',
   'DATA'),
  ('PySide6\\translations\\qtbase_nn.qm',
   'C:\\hostedtoolcache\\windows\\Python\\3.11.7\\x64\\Lib\\site-packages\\PySide6\\translations\\qtbase_nn.qm',
   'DATA'),
  ('PySide6\\translations\\qt_gl.qm',
   'C:\\hostedtoolcache\\windows\\Python\\3.11.7\\x64\\Lib\\site-packages\\PySide6\\translations\\qt_gl.qm',
   'DATA'),
  ('PySide6\\translations\\qtbase_en.qm',
   'C:\\hostedtoolcache\\windows\\Python\\3.11.7\\x64\\Lib\\site-packages\\PySide6\\translations\\qtbase_en.qm',
   'DATA'),
  ('PySide6\\translations\\qtbase_ja.qm',
   'C:\\hostedtoolcache\\windows\\Python\\3.11.7\\x64\\Lib\\site-packages\\PySide6\\translations\\qtbase_ja.qm',
   'DATA'),
  ('PySide6\\translations\\qt_ca.qm',
   'C:\\hostedtoolcache\\windows\\Python\\3.11.7\\x64\\Lib\\site-packages\\PySide6\\translations\\qt_ca.qm',
   'DATA'),
  ('PySide6\\translations\\qt_fr.qm',
   'C:\\hostedtoolcache\\windows\\Python\\3.11.7\\x64\\Lib\\site-packages\\PySide6\\translations\\qt_fr.qm',
   'DATA'),
  ('PySide6\\translations\\qtbase_ca.qm',
   'C:\\hostedtoolcache\\windows\\Python\\3.11.7\\x64\\Lib\\site-packages\\PySide6\\translations\\qtbase_ca.qm',
   'DATA'),
  ('PySide6\\translations\\qtbase_lv.qm',
   'C:\\hostedtoolcache\\windows\\Python\\3.11.7\\x64\\Lib\\site-packages\\PySide6\\translations\\qtbase_lv.qm',
   'DATA'),
  ('PySide6\\translations\\qt_help_hu.qm',
   'C:\\hostedtoolcache\\windows\\Python\\3.11.7\\x64\\Lib\\site-packages\\PySide6\\translations\\qt_help_hu.qm',
   'DATA'),
  ('PySide6\\translations\\qt_help_gl.qm',
   'C:\\hostedtoolcache\\windows\\Python\\3.11.7\\x64\\Lib\\site-packages\\PySide6\\translations\\qt_help_gl.qm',
   'DATA'),
  ('PySide6\\translations\\qt_ru.qm',
   'C:\\hostedtoolcache\\windows\\Python\\3.11.7\\x64\\Lib\\site-packages\\PySide6\\translations\\qt_ru.qm',
   'DATA'),
  ('PySide6\\translations\\qtbase_ru.qm',
   'C:\\hostedtoolcache\\windows\\Python\\3.11.7\\x64\\Lib\\site-packages\\PySide6\\translations\\qtbase_ru.qm',
   'DATA'),
  ('PySide6\\translations\\qt_help_tr.qm',
   'C:\\hostedtoolcache\\windows\\Python\\3.11.7\\x64\\Lib\\site-packages\\PySide6\\translations\\qt_help_tr.qm',
   'DATA'),
  ('PySide6\\translations\\qt_zh_TW.qm',
   'C:\\hostedtoolcache\\windows\\Python\\3.11.7\\x64\\Lib\\site-packages\\PySide6\\translations\\qt_zh_TW.qm',
   'DATA'),
  ('PySide6\\translations\\qt_help_de.qm',
   'C:\\hostedtoolcache\\windows\\Python\\3.11.7\\x64\\Lib\\site-packages\\PySide6\\translations\\qt_help_de.qm',
   'DATA'),
  ('PySide6\\translations\\qt_ko.qm',
   'C:\\hostedtoolcache\\windows\\Python\\3.11.7\\x64\\Lib\\site-packages\\PySide6\\translations\\qt_ko.qm',
   'DATA'),
  ('PySide6\\translations\\qt_help_bg.qm',
   'C:\\hostedtoolcache\\windows\\Python\\3.11.7\\x64\\Lib\\site-packages\\PySide6\\translations\\qt_help_bg.qm',
   'DATA'),
  ('PySide6\\translations\\qtbase_zh_TW.qm',
   'C:\\hostedtoolcache\\windows\\Python\\3.11.7\\x64\\Lib\\site-packages\\PySide6\\translations\\qtbase_zh_TW.qm',
   'DATA'),
  ('PySide6\\translations\\qtbase_bg.qm',
   'C:\\hostedtoolcache\\windows\\Python\\3.11.7\\x64\\Lib\\site-packages\\PySide6\\translations\\qtbase_bg.qm',
   'DATA'),
  ('PySide6\\translations\\qt_help_da.qm',
   'C:\\hostedtoolcache\\windows\\Python\\3.11.7\\x64\\Lib\\site-packages\\PySide6\\translations\\qt_help_da.qm',
   'DATA'),
  ('PySide6\\translations\\qt_lv.qm',
   'C:\\hostedtoolcache\\windows\\Python\\3.11.7\\x64\\Lib\\site-packages\\PySide6\\translations\\qt_lv.qm',
   'DATA'),
  ('PySide6\\translations\\qtbase_cs.qm',
   'C:\\hostedtoolcache\\windows\\Python\\3.11.7\\x64\\Lib\\site-packages\\PySide6\\translations\\qtbase_cs.qm',
   'DATA'),
  ('PySide6\\translations\\qt_fa.qm',
   'C:\\hostedtoolcache\\windows\\Python\\3.11.7\\x64\\Lib\\site-packages\\PySide6\\translations\\qt_fa.qm',
   'DATA'),
  ('PySide6\\translations\\qt_hu.qm',
   'C:\\hostedtoolcache\\windows\\Python\\3.11.7\\x64\\Lib\\site-packages\\PySide6\\translations\\qt_hu.qm',
   'DATA'),
  ('cloudscraper\\user_agent\\browsers.json',
   'C:\\hostedtoolcache\\windows\\Python\\3.11.7\\x64\\Lib\\site-packages\\cloudscraper\\user_agent\\browsers.json',
   'DATA'),
  ('PySide6\\translations\\qtbase_fr.qm',
   'C:\\hostedtoolcache\\windows\\Python\\3.11.7\\x64\\Lib\\site-packages\\PySide6\\translations\\qtbase_fr.qm',
   'DATA'),
  ('PySide6\\translations\\qt_sl.qm',
   'C:\\hostedtoolcache\\windows\\Python\\3.11.7\\x64\\Lib\\site-packages\\PySide6\\translations\\qt_sl.qm',
   'DATA'),
  ('PySide6\\translations\\qt_he.qm',
   'C:\\hostedtoolcache\\windows\\Python\\3.11.7\\x64\\Lib\\site-packages\\PySide6\\translations\\qt_he.qm',
   'DATA'),
  ('PySide6\\translations\\qt_gd.qm',
   'C:\\hostedtoolcache\\windows\\Python\\3.11.7\\x64\\Lib\\site-packages\\PySide6\\translations\\qt_gd.qm',
   'DATA'),
  ('PySide6\\translations\\qt_ar.qm',
   'C:\\hostedtoolcache\\windows\\Python\\3.11.7\\x64\\Lib\\site-packages\\PySide6\\translations\\qt_ar.qm',
   'DATA'),
  ('PySide6\\translations\\qt_help_sl.qm',
   'C:\\hostedtoolcache\\windows\\Python\\3.11.7\\x64\\Lib\\site-packages\\PySide6\\translations\\qt_help_sl.qm',
   'DATA'),
  ('PySide6\\translations\\qt_help_zh_TW.qm',
   'C:\\hostedtoolcache\\windows\\Python\\3.11.7\\x64\\Lib\\site-packages\\PySide6\\translations\\qt_help_zh_TW.qm',
   'DATA'),
  ('PySide6\\translations\\qt_it.qm',
   'C:\\hostedtoolcache\\windows\\Python\\3.11.7\\x64\\Lib\\site-packages\\PySide6\\translations\\qt_it.qm',
   'DATA'),
  ('PySide6\\translations\\qtbase_sk.qm',
   'C:\\hostedtoolcache\\windows\\Python\\3.11.7\\x64\\Lib\\site-packages\\PySide6\\translations\\qtbase_sk.qm',
   'DATA'),
  ('PySide6\\translations\\qt_hr.qm',
   'C:\\hostedtoolcache\\windows\\Python\\3.11.7\\x64\\Lib\\site-packages\\PySide6\\translations\\qt_hr.qm',
   'DATA'),
  ('PySide6\\translations\\qt_sk.qm',
   'C:\\hostedtoolcache\\windows\\Python\\3.11.7\\x64\\Lib\\site-packages\\PySide6\\translations\\qt_sk.qm',
   'DATA'),
  ('PySide6\\translations\\qt_help_nl.qm',
   'C:\\hostedtoolcache\\windows\\Python\\3.11.7\\x64\\Lib\\site-packages\\PySide6\\translations\\qt_help_nl.qm',
   'DATA'),
  ('PySide6\\translations\\qt_nn.qm',
   'C:\\hostedtoolcache\\windows\\Python\\3.11.7\\x64\\Lib\\site-packages\\PySide6\\translations\\qt_nn.qm',
   'DATA'),
  ('PySide6\\translations\\qt_help_ar.qm',
   'C:\\hostedtoolcache\\windows\\Python\\3.11.7\\x64\\Lib\\site-packages\\PySide6\\translations\\qt_help_ar.qm',
   'DATA'),
  ('PySide6\\translations\\qt_help_pl.qm',
   'C:\\hostedtoolcache\\windows\\Python\\3.11.7\\x64\\Lib\\site-packages\\PySide6\\translations\\qt_help_pl.qm',
   'DATA'),
  ('PySide6\\translations\\qtbase_ko.qm',
   'C:\\hostedtoolcache\\windows\\Python\\3.11.7\\x64\\Lib\\site-packages\\PySide6\\translations\\qtbase_ko.qm',
   'DATA'),
  ('PySide6\\translations\\qt_tr.qm',
   'C:\\hostedtoolcache\\windows\\Python\\3.11.7\\x64\\Lib\\site-packages\\PySide6\\translations\\qt_tr.qm',
   'DATA'),
  ('certifi\\cacert.pem',
   'C:\\hostedtoolcache\\windows\\Python\\3.11.7\\x64\\Lib\\site-packages\\certifi\\cacert.pem',
   'DATA'),
  ('PySide6\\translations\\qt_help_en.qm',
   'C:\\hostedtoolcache\\windows\\Python\\3.11.7\\x64\\Lib\\site-packages\\PySide6\\translations\\qt_help_en.qm',
   'DATA'),
  ('PySide6\\translations\\qtbase_pl.qm',
   'C:\\hostedtoolcache\\windows\\Python\\3.11.7\\x64\\Lib\\site-packages\\PySide6\\translations\\qtbase_pl.qm',
   'DATA'),
  ('PySide6\\translations\\qt_help_cs.qm',
   'C:\\hostedtoolcache\\windows\\Python\\3.11.7\\x64\\Lib\\site-packages\\PySide6\\translations\\qt_help_cs.qm',
   'DATA'),
  ('PySide6\\translations\\qt_help_ko.qm',
   'C:\\hostedtoolcache\\windows\\Python\\3.11.7\\x64\\Lib\\site-packages\\PySide6\\translations\\qt_help_ko.qm',
   'DATA'),
  ('PySide6\\translations\\qt_pt_BR.qm',
   'C:\\hostedtoolcache\\windows\\Python\\3.11.7\\x64\\Lib\\site-packages\\PySide6\\translations\\qt_pt_BR.qm',
   'DATA'),
  ('PySide6\\translations\\qt_help_zh_CN.qm',
   'C:\\hostedtoolcache\\windows\\Python\\3.11.7\\x64\\Lib\\site-packages\\PySide6\\translations\\qt_help_zh_CN.qm',
   'DATA'),
  ('PySide6\\translations\\qt_zh_CN.qm',
   'C:\\hostedtoolcache\\windows\\Python\\3.11.7\\x64\\Lib\\site-packages\\PySide6\\translations\\qt_zh_CN.qm',
   'DATA'),
  ('PySide6\\translations\\qtbase_es.qm',
   'C:\\hostedtoolcache\\windows\\Python\\3.11.7\\x64\\Lib\\site-packages\\PySide6\\translations\\qtbase_es.qm',
   'DATA'),
  ('PySide6\\translations\\qt_es.qm',
   'C:\\hostedtoolcache\\windows\\Python\\3.11.7\\x64\\Lib\\site-packages\\PySide6\\translations\\qt_es.qm',
   'DATA'),
  ('PySide6\\translations\\qtbase_de.qm',
   'C:\\hostedtoolcache\\windows\\Python\\3.11.7\\x64\\Lib\\site-packages\\PySide6\\translations\\qtbase_de.qm',
   'DATA'),
  ('PySide6\\translations\\qtbase_it.qm',
   'C:\\hostedtoolcache\\windows\\Python\\3.11.7\\x64\\Lib\\site-packages\\PySide6\\translations\\qtbase_it.qm',
   'DATA'),
  ('PySide6\\translations\\qt_help_uk.qm',
   'C:\\hostedtoolcache\\windows\\Python\\3.11.7\\x64\\Lib\\site-packages\\PySide6\\translations\\qt_help_uk.qm',
   'DATA'),
  ('PySide6\\translations\\qt_nl.qm',
   'C:\\hostedtoolcache\\windows\\Python\\3.11.7\\x64\\Lib\\site-packages\\PySide6\\translations\\qt_nl.qm',
   'DATA'),
  ('PySide6\\translations\\qt_lt.qm',
   'C:\\hostedtoolcache\\windows\\Python\\3.11.7\\x64\\Lib\\site-packages\\PySide6\\translations\\qt_lt.qm',
   'DATA'),
  ('PySide6\\translations\\qt_pt_PT.qm',
   'C:\\hostedtoolcache\\windows\\Python\\3.11.7\\x64\\Lib\\site-packages\\PySide6\\translations\\qt_pt_PT.qm',
   'DATA'),
  ('PySide6\\translations\\qtbase_hr.qm',
   'C:\\hostedtoolcache\\windows\\Python\\3.11.7\\x64\\Lib\\site-packages\\PySide6\\translations\\qtbase_hr.qm',
   'DATA'),
  ('PySide6\\translations\\qt_help_pt_BR.qm',
   'C:\\hostedtoolcache\\windows\\Python\\3.11.7\\x64\\Lib\\site-packages\\PySide6\\translations\\qt_help_pt_BR.qm',
   'DATA'),
  ('PySide6\\translations\\qtbase_he.qm',
   'C:\\hostedtoolcache\\windows\\Python\\3.11.7\\x64\\Lib\\site-packages\\PySide6\\translations\\qtbase_he.qm',
   'DATA'),
  ('PySide6\\translations\\qtbase_tr.qm',
   'C:\\hostedtoolcache\\windows\\Python\\3.11.7\\x64\\Lib\\site-packages\\PySide6\\translations\\qtbase_tr.qm',
   'DATA'),
  ('PySide6\\translations\\qtbase_fi.qm',
   'C:\\hostedtoolcache\\windows\\Python\\3.11.7\\x64\\Lib\\site-packages\\PySide6\\translations\\qtbase_fi.qm',
   'DATA'),
  ('PySide6\\translations\\qt_pl.qm',
   'C:\\hostedtoolcache\\windows\\Python\\3.11.7\\x64\\Lib\\site-packages\\PySide6\\translations\\qt_pl.qm',
   'DATA'),
  ('PySide6\\translations\\qt_uk.qm',
   'C:\\hostedtoolcache\\windows\\Python\\3.11.7\\x64\\Lib\\site-packages\\PySide6\\translations\\qt_uk.qm',
   'DATA'),
  ('PySide6\\translations\\qt_ja.qm',
   'C:\\hostedtoolcache\\windows\\Python\\3.11.7\\x64\\Lib\\site-packages\\PySide6\\translations\\qt_ja.qm',
   'DATA'),
  ('PySide6\\translations\\qt_help_es.qm',
   'C:\\hostedtoolcache\\windows\\Python\\3.11.7\\x64\\Lib\\site-packages\\PySide6\\translations\\qt_help_es.qm',
   'DATA'),
  ('PySide6\\translations\\qt_help_hr.qm',
   'C:\\hostedtoolcache\\windows\\Python\\3.11.7\\x64\\Lib\\site-packages\\PySide6\\translations\\qt_help_hr.qm',
   'DATA'),
  ('PySide6\\translations\\qtbase_fa.qm',
   'C:\\hostedtoolcache\\windows\\Python\\3.11.7\\x64\\Lib\\site-packages\\PySide6\\translations\\qtbase_fa.qm',
   'DATA'),
  ('PySide6\\translations\\qt_bg.qm',
   'C:\\hostedtoolcache\\windows\\Python\\3.11.7\\x64\\Lib\\site-packages\\PySide6\\translations\\qt_bg.qm',
   'DATA'),
  ('PySide6\\translations\\qt_help_sk.qm',
   'C:\\hostedtoolcache\\windows\\Python\\3.11.7\\x64\\Lib\\site-packages\\PySide6\\translations\\qt_help_sk.qm',
   'DATA'),
  ('certifi\\py.typed',
   'C:\\hostedtoolcache\\windows\\Python\\3.11.7\\x64\\Lib\\site-packages\\certifi\\py.typed',
   'DATA'),
  ('PySide6\\translations\\qtbase_zh_CN.qm',
   'C:\\hostedtoolcache\\windows\\Python\\3.11.7\\x64\\Lib\\site-packages\\PySide6\\translations\\qtbase_zh_CN.qm',
   'DATA'),
  ('PySide6\\translations\\qt_help_ca.qm',
   'C:\\hostedtoolcache\\windows\\Python\\3.11.7\\x64\\Lib\\site-packages\\PySide6\\translations\\qt_help_ca.qm',
   'DATA'),
  ('PySide6\\translations\\qtbase_ar.qm',
   'C:\\hostedtoolcache\\windows\\Python\\3.11.7\\x64\\Lib\\site-packages\\PySide6\\translations\\qtbase_ar.qm',
   'DATA'),
  ('PySide6\\translations\\qt_da.qm',
   'C:\\hostedtoolcache\\windows\\Python\\3.11.7\\x64\\Lib\\site-packages\\PySide6\\translations\\qt_da.qm',
   'DATA'),
  ('PySide6\\translations\\qtbase_nl.qm',
   'C:\\hostedtoolcache\\windows\\Python\\3.11.7\\x64\\Lib\\site-packages\\PySide6\\translations\\qtbase_nl.qm',
   'DATA'),
  ('PySide6\\translations\\qt_de.qm',
   'C:\\hostedtoolcache\\windows\\Python\\3.11.7\\x64\\Lib\\site-packages\\PySide6\\translations\\qt_de.qm',
   'DATA'),
  ('PySide6\\translations\\qt_en.qm',
   'C:\\hostedtoolcache\\windows\\Python\\3.11.7\\x64\\Lib\\site-packages\\PySide6\\translations\\qt_en.qm',
   'DATA'),
  ('PySide6\\translations\\qt_fi.qm',
   'C:\\hostedtoolcache\\windows\\Python\\3.11.7\\x64\\Lib\\site-packages\\PySide6\\translations\\qt_fi.qm',
   'DATA'),
  ('PySide6\\translations\\qt_help_ja.qm',
   'C:\\hostedtoolcache\\windows\\Python\\3.11.7\\x64\\Lib\\site-packages\\PySide6\\translations\\qt_help_ja.qm',
   'DATA'),
  ('PySide6\\translations\\qt_sv.qm',
   'C:\\hostedtoolcache\\windows\\Python\\3.11.7\\x64\\Lib\\site-packages\\PySide6\\translations\\qt_sv.qm',
   'DATA'),
  ('PySide6\\translations\\qtbase_pt_BR.qm',
   'C:\\hostedtoolcache\\windows\\Python\\3.11.7\\x64\\Lib\\site-packages\\PySide6\\translations\\qtbase_pt_BR.qm',
   'DATA'),
  ('PySide6\\translations\\qtbase_uk.qm',
   'C:\\hostedtoolcache\\windows\\Python\\3.11.7\\x64\\Lib\\site-packages\\PySide6\\translations\\qtbase_uk.qm',
   'DATA'),
  ('werkzeug-3.0.1.dist-info\\RECORD',
   'c:\\hostedtoolcache\\windows\\python\\3.11.7\\x64\\lib\\site-packages\\werkzeug-3.0.1.dist-info\\RECORD',
   'DATA'),
  ('werkzeug-3.0.1.dist-info\\METADATA',
   'c:\\hostedtoolcache\\windows\\python\\3.11.7\\x64\\lib\\site-packages\\werkzeug-3.0.1.dist-info\\METADATA',
   'DATA'),
  ('flask-3.0.0.dist-info\\RECORD',
   'c:\\hostedtoolcache\\windows\\python\\3.11.7\\x64\\lib\\site-packages\\flask-3.0.0.dist-info\\RECORD',
   'DATA'),
  ('flask-3.0.0.dist-info\\REQUESTED',
   'c:\\hostedtoolcache\\windows\\python\\3.11.7\\x64\\lib\\site-packages\\flask-3.0.0.dist-info\\REQUESTED',
   'DATA'),
  ('werkzeug-3.0.1.dist-info\\LICENSE.rst',
   'c:\\hostedtoolcache\\windows\\python\\3.11.7\\x64\\lib\\site-packages\\werkzeug-3.0.1.dist-info\\LICENSE.rst',
   'DATA'),
  ('werkzeug-3.0.1.dist-info\\WHEEL',
   'c:\\hostedtoolcache\\windows\\python\\3.11.7\\x64\\lib\\site-packages\\werkzeug-3.0.1.dist-info\\WHEEL',
   'DATA'),
  ('flask-3.0.0.dist-info\\METADATA',
   'c:\\hostedtoolcache\\windows\\python\\3.11.7\\x64\\lib\\site-packages\\flask-3.0.0.dist-info\\METADATA',
   'DATA'),
  ('flask-3.0.0.dist-info\\entry_points.txt',
   'c:\\hostedtoolcache\\windows\\python\\3.11.7\\x64\\lib\\site-packages\\flask-3.0.0.dist-info\\entry_points.txt',
   'DATA'),
  ('flask-3.0.0.dist-info\\LICENSE.rst',
   'c:\\hostedtoolcache\\windows\\python\\3.11.7\\x64\\lib\\site-packages\\flask-3.0.0.dist-info\\LICENSE.rst',
   'DATA'),
  ('flask-3.0.0.dist-info\\WHEEL',
   'c:\\hostedtoolcache\\windows\\python\\3.11.7\\x64\\lib\\site-packages\\flask-3.0.0.dist-info\\WHEEL',
   'DATA'),
  ('flask-3.0.0.dist-info\\INSTALLER',
   'c:\\hostedtoolcache\\windows\\python\\3.11.7\\x64\\lib\\site-packages\\flask-3.0.0.dist-info\\INSTALLER',
   'DATA'),
  ('werkzeug-3.0.1.dist-info\\INSTALLER',
   'c:\\hostedtoolcache\\windows\\python\\3.11.7\\x64\\lib\\site-packages\\werkzeug-3.0.1.dist-info\\INSTALLER',
   'DATA')],
 False,
 False,
 False,
 [],
 None,
 None,
 None)
